Basic data exploration
…
topExpressedProteins2 <- topExpressedProteins %>%
  dplyr::summarise(n = n()) %>%
  dplyr::arrange(desc(n)) %>% 
  dplyr::rename(UniProt_ID = Var1) %>%
  left_join(dge$genes[,c("UniProt_ID", "Gene")]) %>%
  dplyr::select(UniProt_ID, Gene, n)

Joining, by = "UniProt_ID"

topExpressedProteins2

# A tibble: 99 x 3
   UniProt_ID Gene      n
   <chr>      <chr> <int>
 1 P69905     HBA      57
 2 P68871     HBB      51
 3 P60709     ACTB     41
 4 P02671     FIBA     38
 5 P02768     ALBU     35
 6 P02675     FIBB     33
 7 P02679     FIBG     33
 8 P00915     CAH1     29
 9 P21333     FLNA     26
10 P35579     MYH9     16
# … with 89 more rows
…
topExpressedProteins2 <- topExpressedProteins %>%
  dplyr::summarise(n = n()) %>%
  dplyr::arrange(desc(n)) %>% 
  dplyr::rename(UniProt_ID = Var1) %>%
  left_join(dge$genes[,c("UniProt_ID", "Gene")]) %>%
  dplyr::select(UniProt_ID, Gene, n)

Joining, by = "UniProt_ID"

topExpressedProteins2

# A tibble: 99 x 3
   UniProt_ID Gene      n
   <chr>      <chr> <int>
 1 P69905     HBA      57
 2 P68871     HBB      51
 3 P60709     ACTB     41
 4 P02671     FIBA     38
 5 P02768     ALBU     35
 6 P02675     FIBB     33
 7 P02679     FIBG     33
 8 P00915     CAH1     29
 9 P21333     FLNA     26
10 P35579     MYH9     16
# … with 89 more rows
…
