Data import and cleaning
…
cleanDat <- dat %>%
  tibble::rownames_to_column(var = "ProteinNum") %>%
  dplyr::mutate(ProteinNum = gsub("^", "Protein_", ProteinNum)) %>%
  dplyr::select(ProteinNum, `Protein IDs`, `Majority protein IDs`, `Peptide counts (all)`, `Number of proteins`, `Peptides`, 
                `Unique peptides`, `Sequence coverage [%]`, `Unique sequence coverage [%]`, `Mol. weight [kDa]`,
                `Sequence length`, `Sequence lengths`, `Q-value`, Score, `Only identified by site`, Reverse, 
                `Potential contaminant`, id, `Peptide IDs`, `Peptide is razor`, `Mod. peptide IDs`, 
                `Evidence IDs`, `MS/MS IDs`, `Best MS/MS`, `Deamidation (NQ) site IDs`, `Oxidation (M) site IDs`, 
                `Deamidation (NQ) site positions`, `Oxidation (M) site positions`, `Taxonomy IDs`, contains("LFQ"))

colnames(cleanDat) <- gsub("^LFQ intensity (Batch[12]-.+)_Slot.+$", "\\1", colnames(cleanDat))

cleanDat

# A tibble: 1,314 x 99
   ProteinNum `Protein IDs`  `Majority protei… `Peptide counts… `Number of prot…
   <chr>      <chr>          <chr>             <chr>                       <dbl>
 1 Protein_1  CON__P00761    CON__P00761       2                               1
 2 Protein_2  CON__P01966    CON__P01966       10                              1
 3 Protein_3  CON__P02070;s… CON__P02070       7;2                             2
 4 Protein_4  CON__P02533;s… CON__P02533;sp|P… 16;16;7;6;6;6;5…               40
 5 Protein_5  CON__P02538;s… CON__P02538;sp|P… 12;12;11;11;10;…               19
 6 Protein_6  CON__P02672    CON__P02672       4                               1
 7 Protein_7  CON__P02676    CON__P02676       6                               1
 8 Protein_8  CON__P02768-1… CON__P02768-1;sp… 38;38;5                         3
 9 Protein_9  sp|P05787|K2C… sp|P05787|K2C8_H… 5;5;3;3;3;3;3;3…               10
10 Protein_10 sp|P08779|K1C… sp|P08779|K1C16_… 14;14;5;5                       4
# … with 1,304 more rows, and 94 more variables: Peptides <dbl>,
#   Unique peptides <dbl>, Sequence coverage [%] <dbl>,
#   Unique sequence coverage [%] <dbl>, Mol. weight [kDa] <dbl>,
#   Sequence length <dbl>, Sequence lengths <chr>, Q-value <dbl>, Score <dbl>,
#   Only identified by site <chr>, Reverse <chr>, Potential contaminant <chr>,
#   id <dbl>, Peptide IDs <chr>, Peptide is razor <chr>,
#   Mod. peptide IDs <chr>, Evidence IDs <chr>, MS/MS IDs <chr>,
#   Best MS/MS <chr>, Deamidation (NQ) site IDs <chr>,
#   Oxidation (M) site IDs <chr>, Deamidation (NQ) site positions <chr>,
…
